/* XPM */
static const char * cursor_line_wire_xpm[] = {
"32 32 4 1",
" 	c None",
".	c #FFFFFF",
"+	c #000000",
"@	c #008000",
"    ...                .        ",
"    .+.               .@.       ",
"    .+.              .@@@.      ",
"    .+.             .@@@.       ",
".....+.....        .@@@.        ",
".++++ ++++.       .@@@.         ",
".....+.....      .@@@.          ",
"    .+.         .@@@.           ",
"    .+.        .@@@.            ",
"    .+.       .@@@.             ",
"    ...      .@@@.              ",
"            .@@@.               ",
"           .@@@.                ",
"          .@@@.                 ",
"         .@@@.                  ",
"        .@@@.                   ",
"       .@@@.                    ",
"        .@.                     ",
"         .                      ",
"                                ",
"                                ",
"                                ",
"                                ",
"                                ",
"                                ",
"                                ",
"                                ",
"                                ",
"                                ",
"                                ",
"                                ",
"                                "};
