<?xml version="1.0" encoding="UTF-8" standalone="no"?>
<svg
   xmlns:dc="http://purl.org/dc/elements/1.1/"
   xmlns:cc="http://creativecommons.org/ns#"
   xmlns:rdf="http://www.w3.org/1999/02/22-rdf-syntax-ns#"
   xmlns:svg="http://www.w3.org/2000/svg"
   xmlns="http://www.w3.org/2000/svg"
   xmlns:sodipodi="http://sodipodi.sourceforge.net/DTD/sodipodi-0.dtd"
   xmlns:inkscape="http://www.inkscape.org/namespaces/inkscape"
   id="Слой_1"
   data-name="Слой 1"
   viewBox="0 0 24 24"
   version="1.1"
   sodipodi:docname="text_edit.svg"
   inkscape:version="1.0.1 (3bc2e813f5, 2020-09-07)">
  <sodipodi:namedview
     pagecolor="#ffffff"
     bordercolor="#666666"
     borderopacity="1"
     objecttolerance="10"
     gridtolerance="10"
     guidetolerance="10"
     inkscape:pageopacity="0"
     inkscape:pageshadow="2"
     inkscape:window-width="2806"
     inkscape:window-height="1511"
     id="namedview30"
     showgrid="true"
     inkscape:zoom="27.961538"
     inkscape:cx="7.2871158"
     inkscape:cy="13.174665"
     inkscape:window-x="0"
     inkscape:window-y="37"
     inkscape:window-maximized="0"
     inkscape:document-rotation="0"
     inkscape:current-layer="Слой_1">
    <inkscape:grid
       type="xygrid"
       id="grid_kicad"
       spacingx="0.5"
       spacingy="0.5"
       color="#9999ff"
       opacity="0.13"
       empspacing="2" />
  </sodipodi:namedview>
  <metadata
     id="metadata43">
    <rdf:RDF>
      <cc:Work
         rdf:about="">
        <cc:license
           rdf:resource="http://creativecommons.org/licenses/by-sa/4.0/" />
        <dc:format>image/svg+xml</dc:format>
        <dc:type
           rdf:resource="http://purl.org/dc/dcmitype/StillImage" />
        <dc:title>text</dc:title>
      </cc:Work>
      <cc:License
         rdf:about="http://creativecommons.org/licenses/by-sa/4.0/">
        <cc:permits
           rdf:resource="http://creativecommons.org/ns#Reproduction" />
        <cc:permits
           rdf:resource="http://creativecommons.org/ns#Distribution" />
        <cc:requires
           rdf:resource="http://creativecommons.org/ns#Notice" />
        <cc:requires
           rdf:resource="http://creativecommons.org/ns#Attribution" />
        <cc:permits
           rdf:resource="http://creativecommons.org/ns#DerivativeWorks" />
        <cc:requires
           rdf:resource="http://creativecommons.org/ns#ShareAlike" />
      </cc:License>
    </rdf:RDF>
  </metadata>
  <defs
     id="defs27349">
    <style
       id="style27347">.cls-1{fill:#545454;}</style>
  </defs>
  <title
     id="title27351">text</title>
  <path
     class="cls-1"
     d="M 20,5 H 14 V 22 H 10 V 5 H 4 V 2 h 16 z"
     id="path27353"
     sodipodi:nodetypes="ccccccccc" />
  <ellipse
     class="cls-3"
     cx="17"
     cy="17"
     id="circle843"
     style="display:inline;fill:#ffffff;fill-opacity:1;stroke-width:0.999999"
     r="7.9999995" />
  <circle
     class="cls-3"
     cx="17.000002"
     cy="17.000002"
     id="ellipse22-5"
     style="display:inline;fill:#bf2641;stroke-width:0.999999"
     r="7" />
  <path
     class="cls-4"
     d="M 21.539701,13 20.89452,12.354822 c -0.401771,-0.40166 -1.053052,-0.40166 -1.454825,0 l -5.316089,5.34082 2.100005,2.100132 5.31609,-5.340946 c 0.401658,-0.401772 0.401658,-1.053056 0,-1.454828 z"
     id="path25-6"
     style="display:inline;fill:#ffffff;stroke-width:0.999999"
     sodipodi:nodetypes="ccccccc" />
  <path
     id="polygon27"
     style="display:inline;fill:#ffffff;stroke-width:0.999999"
     d="m 13,21 h 3 c -0.779315,-0.772295 -2.28388,-2.275534 -3,-3 z"
     sodipodi:nodetypes="cccc" />
</svg>
