<?xml version="1.0" encoding="UTF-8" standalone="no"?>
<svg
   xmlns:dc="http://purl.org/dc/elements/1.1/"
   xmlns:cc="http://creativecommons.org/ns#"
   xmlns:rdf="http://www.w3.org/1999/02/22-rdf-syntax-ns#"
   xmlns:svg="http://www.w3.org/2000/svg"
   xmlns="http://www.w3.org/2000/svg"
   xmlns:xlink="http://www.w3.org/1999/xlink"
   xmlns:sodipodi="http://sodipodi.sourceforge.net/DTD/sodipodi-0.dtd"
   xmlns:inkscape="http://www.inkscape.org/namespaces/inkscape"
   id="Слой_1"
   data-name="Слой 1"
   viewBox="0 0 24 24"
   version="1.1"
   sodipodi:docname="zone_unfill.svg"
   inkscape:version="1.0.1 (3bc2e813f5, 2020-09-07)">
  <sodipodi:namedview
     pagecolor="#ffffff"
     bordercolor="#666666"
     borderopacity="1"
     objecttolerance="10"
     gridtolerance="10"
     guidetolerance="10"
     inkscape:pageopacity="0"
     inkscape:pageshadow="2"
     inkscape:window-width="2479"
     inkscape:window-height="1516"
     id="namedview160480"
     showgrid="true"
     inkscape:zoom="30.291667"
     inkscape:cx="4.7633496"
     inkscape:cy="12.687217"
     inkscape:window-x="0"
     inkscape:window-y="37"
     inkscape:window-maximized="0"
     inkscape:current-layer="Слой_1"
     inkscape:document-rotation="0">
    <inkscape:grid
       type="xygrid"
       id="grid240575"
       spacingx="0.5"
       spacingy="0.5"
       color="#bebeff"
       opacity="0.1254902"
       empspacing="2" />
  </sodipodi:namedview>
  <metadata
     id="metadata43">
    <rdf:RDF>
      <cc:Work
         rdf:about="">
        <cc:license
           rdf:resource="http://creativecommons.org/licenses/by-sa/4.0/" />
        <dc:format>image/svg+xml</dc:format>
        <dc:type
           rdf:resource="http://purl.org/dc/dcmitype/StillImage" />
        <dc:title>add_arc</dc:title>
      </cc:Work>
      <cc:License
         rdf:about="http://creativecommons.org/licenses/by-sa/4.0/">
        <cc:permits
           rdf:resource="http://creativecommons.org/ns#Reproduction" />
        <cc:permits
           rdf:resource="http://creativecommons.org/ns#Distribution" />
        <cc:requires
           rdf:resource="http://creativecommons.org/ns#Notice" />
        <cc:requires
           rdf:resource="http://creativecommons.org/ns#Attribution" />
        <cc:permits
           rdf:resource="http://creativecommons.org/ns#DerivativeWorks" />
        <cc:requires
           rdf:resource="http://creativecommons.org/ns#ShareAlike" />
      </cc:License>
    </rdf:RDF>
  </metadata>
  <defs
     id="defs160453">
    <style
       id="style160445">.cls-1{fill:#1a81c4;}.cls-2{fill:#595959;}.cls-3{fill:url(#Безымянный_градиент_19);}.cls-4{fill:url(#Безымянный_градиент_19-2);}.cls-5{fill:#545454;}.cls-6{fill:#bf2641;}.cls-7{fill:none;stroke:#f5f5f5;stroke-linecap:round;stroke-linejoin:round;stroke-width:2px;}</style>
    <linearGradient
       id="Безымянный_градиент_19"
       x1="8.3372"
       y1="15.5299"
       x2="8.3372"
       y2="12.9228"
       gradientUnits="userSpaceOnUse">
      <stop
         offset="0"
         stop-color="#ececec"
         id="stop160447" />
      <stop
         offset="1"
         stop-color="#c6c6c5"
         id="stop160449" />
    </linearGradient>
    <linearGradient
       id="Безымянный_градиент_19-2"
       x1="9.5617"
       y1="15.5299"
       x2="9.5617"
       y2="12.9228"
       xlink:href="#Безымянный_градиент_19"
       gradientTransform="translate(-1,-1)" />
  </defs>
  <title
     id="title160455">zone_unfill</title>
  <path
     id="polygon838"
     style="fill:#1a81c4;stroke:#1a81c4"
     d="m 0.5,10.5 v 9 h 19 v -19 h -13 v 10 z"
     class="st0"
     sodipodi:nodetypes="ccccccc" />
  <path
     id="path2776"
     style="fill:#545454;fill-opacity:1;stroke:#ffffff;stroke-width:2.2;stroke-miterlimit:0;stroke-dasharray:none;stroke-opacity:1;paint-order:stroke fill markers"
     d="m 14.928614,4.976565 a 2.0635231,2.010251 0 0 0 -2.064453,2.011718 2.0635231,2.010251 0 0 0 2.064453,2.009766 2.0635231,2.010251 0 0 0 1.78125,-0.998047 h 3.185547 c 0.04089,0 0.07422,-0.03333 0.07422,-0.07422 V 6.07422 C 19.969631,6.03333 19.936301,6 19.895411,6 H 16.723536 A 2.0635231,2.010251 0 0 0 14.928614,4.976565 Z" />
  <path
     class="cls-6"
     d="m 22.657061,22.656728 a 8.0000474,7.9999998 0 1 1 0,-11.313457 8.0002759,8.0002282 0 0 1 0,11.313457 z"
     id="path853"
     style="stroke-width:1;fill:#ffffff;fill-opacity:1" />
  <path
     class="cls-6"
     d="m 21.9513,21.948 a 7.0032,7.0032 0 1 1 0,-9.9038 7.0034,7.0034 0 0 1 0,9.9038 z"
     id="path160473" />
  <line
     class="cls-7"
     x1="19.4708"
     y1="14.5158"
     x2="14.5189"
     y2="19.467699"
     id="line160475" />
  <line
     class="cls-7"
     x1="19.4708"
     y1="19.467699"
     x2="14.5189"
     y2="14.5158"
     id="line160477" />
</svg>
