<?xml version="1.0" encoding="UTF-8" standalone="no"?>
<svg
   xmlns:dc="http://purl.org/dc/elements/1.1/"
   xmlns:cc="http://creativecommons.org/ns#"
   xmlns:rdf="http://www.w3.org/1999/02/22-rdf-syntax-ns#"
   xmlns:svg="http://www.w3.org/2000/svg"
   xmlns="http://www.w3.org/2000/svg"
   xmlns:sodipodi="http://sodipodi.sourceforge.net/DTD/sodipodi-0.dtd"
   xmlns:inkscape="http://www.inkscape.org/namespaces/inkscape"
   id="Слой_1"
   data-name="Слой 1"
   viewBox="0 0 24 24"
   version="1.1"
   sodipodi:docname="zone_fillet.svg"
   inkscape:version="1.0.1 (3bc2e813f5, 2020-09-07)">
  <sodipodi:namedview
     pagecolor="#ffffff"
     bordercolor="#666666"
     borderopacity="1"
     objecttolerance="10"
     gridtolerance="10"
     guidetolerance="10"
     inkscape:pageopacity="0"
     inkscape:pageshadow="2"
     inkscape:window-width="1609"
     inkscape:window-height="1286"
     id="namedview30"
     showgrid="true"
     inkscape:zoom="27.961538"
     inkscape:cx="9.3416042"
     inkscape:cy="13.295395"
     inkscape:window-x="0"
     inkscape:window-y="37"
     inkscape:window-maximized="0"
     inkscape:document-rotation="0"
     inkscape:current-layer="Слой_1">
    <inkscape:grid
       type="xygrid"
       id="grid_kicad"
       spacingx="0.5"
       spacingy="0.5"
       color="#9999ff"
       opacity="0.13"
       empspacing="2" />
  </sodipodi:namedview>
  <metadata
     id="metadata43">
    <rdf:RDF>
      <cc:Work
         rdf:about="">
        <cc:license
           rdf:resource="http://creativecommons.org/licenses/by-sa/4.0/" />
        <dc:format>image/svg+xml</dc:format>
        <dc:type
           rdf:resource="http://purl.org/dc/dcmitype/StillImage" />
        <dc:title>add_arc</dc:title>
      </cc:Work>
      <cc:License
         rdf:about="http://creativecommons.org/licenses/by-sa/4.0/">
        <cc:permits
           rdf:resource="http://creativecommons.org/ns#Reproduction" />
        <cc:permits
           rdf:resource="http://creativecommons.org/ns#Distribution" />
        <cc:requires
           rdf:resource="http://creativecommons.org/ns#Notice" />
        <cc:requires
           rdf:resource="http://creativecommons.org/ns#Attribution" />
        <cc:permits
           rdf:resource="http://creativecommons.org/ns#DerivativeWorks" />
        <cc:requires
           rdf:resource="http://creativecommons.org/ns#ShareAlike" />
      </cc:License>
    </rdf:RDF>
  </metadata>
  <defs
     id="defs27772">
    <style
       id="style27770">.cls-1{fill:#b9b9b9;}.cls-2{fill:none;stroke:#545454;stroke-miterlimit:10;}.cls-3{fill:#545454;}</style>
  </defs>
  <title
     id="title27774">zone_fillet</title>
  <path
     class="cls-1"
     d="M 23.9907,24.0007 H 0.0159 V 0.0093 h 6.5463 v 2.8333 a 14.96,14.96 0 0 0 14.5952,14.6529 h 2.8333 z"
     id="path27776" />
  <polyline
     class="cls-2"
     points="7.282 1.009 7.282 18.718 24.991 18.718"
     id="polyline27778"
     transform="matrix(0.98819809,0,0,0.98820046,-0.6960585,-0.99709426)"
     style="stroke-width:1.01194" />
  <path
     class="cls-2"
     d="M 6.5,0 V 1.3143554 A 16.185659,16.185842 0 0 0 22.685659,17.5 H 24"
     id="path27780"
     style="stroke-width:0.999996" />
  <rect
     class="cls-3"
     x="5"
     y="15.999999"
     width="3"
     height="2.9999998"
     id="rect27782"
     style="stroke-width:1" />
</svg>
